…
#### sort tidy BRFSS data by general health responses

``` r
overall_health = BRFSS[BRFSS$topic=="Overall Health",]

sorted_overall_health = 
overall_health |> 
  mutate(overall_health = fct_relevel(overall_health$response, c("Poor", "Fair", "Good", "Very good", "Excellent"))) |> 
  arrange(overall_health)

sorted_overall_health
```

    ## # A tibble: 10,625 × 14
    ##     year state county       class topic question response sample_size data_value
    ##    <int> <chr> <chr>        <chr> <chr> <chr>    <chr>          <int>      <dbl>
    ##  1  2010 AL    AL - Jeffer… Heal… Over… How is … Poor              45        5.5
    ##  2  2010 AL    AL - Mobile… Heal… Over… How is … Poor              66        6.4
    ##  3  2010 AL    AL - Tuscal… Heal… Over… How is … Poor              35        4.2
    ##  4  2010 AZ    AZ - Marico… Heal… Over… How is … Poor              62        3.5
    ##  5  2010 AZ    AZ - Pima C… Heal… Over… How is … Poor              49        5.7
    ##  6  2010 AZ    AZ - Pinal … Heal… Over… How is … Poor              30        4  
    ##  7  2010 AR    AR - Benton… Heal… Over… How is … Poor              21        3  
    ##  8  2010 AR    AR - Pulask… Heal… Over… How is … Poor              36        3.8
    ##  9  2010 AR    AR - Washin… Heal… Over… How is … Poor              16        2.4
    ## 10  2010 CA    CA - Alamed… Heal… Over… How is … Poor              23        2.4
    ## # ℹ 10,615 more rows
    ## # ℹ 5 more variables: lower_confidence_lim <dbl>, upper_confidence_lim <dbl>,
    ## #   display_order <int>, geolocation <chr>, overall_health <fct>
…
    ## `summarise()` has grouped output by 'year'. You can override using the
    ## `.groups` argument.

``` r
excellent_data
```

    ## # A tibble: 2,125 × 3
    ## # Groups:   year [9]
    ##     year county                      data_value_average
    ##    <int> <chr>                                    <dbl>
    ##  1  2002 AK - Anchorage Municipality               27.9
    ##  2  2002 AL - Jefferson County                     18.5
    ##  3  2002 AR - Pulaski County                       24.1
    ##  4  2002 AZ - Maricopa County                      21.6
    ##  5  2002 AZ - Pima County                          26.6
    ##  6  2002 CA - Los Angeles County                   22.7
    ##  7  2002 CO - Adams County                         21.2
    ##  8  2002 CO - Arapahoe County                      25.5
    ##  9  2002 CO - Denver County                        22.2
    ## 10  2002 CO - Jefferson County                     23.4
    ## # ℹ 2,115 more rows
…
    ## Rows: 250 Columns: 1441
    ## ── Column specification ────────────────────────────────────────────────────────
    ## Delimiter: ","
    ## dbl (1441): SEQN, min1, min2, min3, min4, min5, min6, min7, min8, min9, min1...
    ## 
    ## ℹ Use `spec()` to retrieve the full column specification for this data.
    ## ℹ Specify the column types or set `show_col_types = FALSE` to quiet this message.

``` r
accelerometer |> 
  janitor::clean_names() 
```

    ## # A tibble: 250 × 1,441
    ##     seqn  min1  min2  min3  min4   min5   min6  min7   min8    min9  min10
    ##    <dbl> <dbl> <dbl> <dbl> <dbl>  <dbl>  <dbl> <dbl>  <dbl>   <dbl>  <dbl>
    ##  1 62161 1.11  3.12  1.47  0.938 1.60   0.145  2.10  0.509   1.63   1.20  
    ##  2 62164 1.92  1.67  2.38  0.935 2.59   5.22   2.39  4.90    1.97   3.13  
    ##  3 62169 5.85  5.18  4.76  6.48  6.85   7.24   6.12  7.48    5.47   6.49  
    ##  4 62174 5.42  3.48  3.72  3.81  6.85   4.45   0.561 1.61    0.698  2.72  
    ##  5 62177 6.14  8.06  9.99  6.60  4.57   2.78   7.10  7.25   10.1    7.49  
    ##  6 62178 0.167 0.429 0.131 1.20  0.0796 0.0487 0.106 0.0653  0.0564 0.0639
    ##  7 62180 0.039 0     0     0     0.369  0.265  0.506 0.638   0      0.011 
    ##  8 62184 1.55  2.81  3.86  4.76  6.10   7.61   4.74  6.73    5.42   4.24  
    ##  9 62186 3.08  2.54  2.63  2.12  1.14   1.68   2.84  2.72    2.13   2.18  
    ## 10 62189 2.81  0.195 0.163 0     0.144  0.180  0.870 0.214   0      0     
    ## # ℹ 240 more rows
    ## # ℹ 1,430 more variables: min11 <dbl>, min12 <dbl>, min13 <dbl>, min14 <dbl>,
    ## #   min15 <dbl>, min16 <dbl>, min17 <dbl>, min18 <dbl>, min19 <dbl>,
    ## #   min20 <dbl>, min21 <dbl>, min22 <dbl>, min23 <dbl>, min24 <dbl>,
    ## #   min25 <dbl>, min26 <dbl>, min27 <dbl>, min28 <dbl>, min29 <dbl>,
    ## #   min30 <dbl>, min31 <dbl>, min32 <dbl>, min33 <dbl>, min34 <dbl>,
    ## #   min35 <dbl>, min36 <dbl>, min37 <dbl>, min38 <dbl>, min39 <dbl>, …
…
#### total activity

``` r
acc_wo_seqn = accelerometer[,-1] 

total_activity_df = 
  accelerometer |> 
  rename(seqn = SEQN) |> 
  mutate(total_activity = rowSums(acc_wo_seqn))

total_activity_df
```

    ## # A tibble: 250 × 1,442
    ##     seqn  min1  min2  min3  min4   min5   min6  min7   min8    min9  min10
    ##    <dbl> <dbl> <dbl> <dbl> <dbl>  <dbl>  <dbl> <dbl>  <dbl>   <dbl>  <dbl>
    ##  1 62161 1.11  3.12  1.47  0.938 1.60   0.145  2.10  0.509   1.63   1.20  
    ##  2 62164 1.92  1.67  2.38  0.935 2.59   5.22   2.39  4.90    1.97   3.13  
    ##  3 62169 5.85  5.18  4.76  6.48  6.85   7.24   6.12  7.48    5.47   6.49  
    ##  4 62174 5.42  3.48  3.72  3.81  6.85   4.45   0.561 1.61    0.698  2.72  
    ##  5 62177 6.14  8.06  9.99  6.60  4.57   2.78   7.10  7.25   10.1    7.49  
    ##  6 62178 0.167 0.429 0.131 1.20  0.0796 0.0487 0.106 0.0653  0.0564 0.0639
    ##  7 62180 0.039 0     0     0     0.369  0.265  0.506 0.638   0      0.011 
    ##  8 62184 1.55  2.81  3.86  4.76  6.10   7.61   4.74  6.73    5.42   4.24  
    ##  9 62186 3.08  2.54  2.63  2.12  1.14   1.68   2.84  2.72    2.13   2.18  
    ## 10 62189 2.81  0.195 0.163 0     0.144  0.180  0.870 0.214   0      0     
    ## # ℹ 240 more rows
    ## # ℹ 1,431 more variables: min11 <dbl>, min12 <dbl>, min13 <dbl>, min14 <dbl>,
    ## #   min15 <dbl>, min16 <dbl>, min17 <dbl>, min18 <dbl>, min19 <dbl>,
    ## #   min20 <dbl>, min21 <dbl>, min22 <dbl>, min23 <dbl>, min24 <dbl>,
    ## #   min25 <dbl>, min26 <dbl>, min27 <dbl>, min28 <dbl>, min29 <dbl>,
    ## #   min30 <dbl>, min31 <dbl>, min32 <dbl>, min33 <dbl>, min34 <dbl>,
    ## #   min35 <dbl>, min36 <dbl>, min37 <dbl>, min38 <dbl>, min39 <dbl>, …

``` r
join_data =
  demographics |> 
  inner_join(total_activity_df, by = "seqn")

join_data
```

    ## # A tibble: 225 × 1,446
    ##     seqn sex      age   bmi education     min1   min2   min3  min4   min5   min6
    ##    <dbl> <fct>  <dbl> <dbl> <fct>        <dbl>  <dbl>  <dbl> <dbl>  <dbl>  <dbl>
    ##  1 62161 male      22  23.3 high school… 1.11  3.12   1.47   0.938 1.60   0.145 
    ##  2 62164 female    44  23.2 more than h… 1.92  1.67   2.38   0.935 2.59   5.22  
    ##  3 62174 male      80  33.9 more than h… 5.42  3.48   3.72   3.81  6.85   4.45  
    ##  4 62177 male      51  20.1 high school… 6.14  8.06   9.99   6.60  4.57   2.78  
    ##  5 62178 male      80  28.5 high school… 0.167 0.429  0.131  1.20  0.0796 0.0487
    ##  6 62180 male      35  27.9 more than h… 0.039 0      0      0     0.369  0.265 
    ##  7 62184 male      26  22.1 high school… 1.55  2.81   3.86   4.76  6.10   7.61  
    ##  8 62189 female    30  22.4 more than h… 2.81  0.195  0.163  0     0.144  0.180 
    ##  9 62199 male      57  28   more than h… 0.031 0.0359 0.0387 0.079 0.109  0.262 
    ## 10 62202 male      36  24.7 less than h… 3.68  3.28   4.37   4.03  1.63   2.82  
    ## # ℹ 215 more rows
    ## # ℹ 1,435 more variables: min7 <dbl>, min8 <dbl>, min9 <dbl>, min10 <dbl>,
    ## #   min11 <dbl>, min12 <dbl>, min13 <dbl>, min14 <dbl>, min15 <dbl>,
    ## #   min16 <dbl>, min17 <dbl>, min18 <dbl>, min19 <dbl>, min20 <dbl>,
    ## #   min21 <dbl>, min22 <dbl>, min23 <dbl>, min24 <dbl>, min25 <dbl>,
    ## #   min26 <dbl>, min27 <dbl>, min28 <dbl>, min29 <dbl>, min30 <dbl>,
    ## #   min31 <dbl>, min32 <dbl>, min33 <dbl>, min34 <dbl>, min35 <dbl>, …
…
